('C:\\Users\\lugoncalves\\OneDrive - Schréder '
 'SA\\Documents\\E2ETest\\exedrag3automationtool\\build\\ExedraG3AutomationTool_1.1\\PKG-00.pkg',
 {'BINARY': 1,
  'DATA': 1,
  'EXECUTABLE': 1,
  'EXTENSION': 1,
  'PYMODULE': 1,
  'PYSOURCE': 1,
  'PYZ': 0,
  'SPLASH': 1},
 [('PYZ-00.pyz',
   'C:\\Users\\lugoncalves\\OneDrive - Schréder '
   'SA\\Documents\\E2ETest\\exedrag3automationtool\\build\\ExedraG3AutomationTool_1.1\\PYZ-00.pyz',
   'PYZ'),
  ('struct',
   'C:\\Users\\lugoncalves\\OneDrive - Schréder '
   'SA\\Documents\\E2ETest\\exedrag3automationtool\\build\\ExedraG3AutomationTool_1.1\\localpycos\\struct.pyo',
   'PYMODULE'),
  ('pyimod01_os_path',
   'C:\\Users\\lugoncalves\\AppData\\Roaming\\Python\\Python39\\site-packages\\PyInstaller\\loader\\pyimod01_os_path.pyc',
   'PYMODULE'),
  ('pyimod02_archive',
   'C:\\Users\\lugoncalves\\AppData\\Roaming\\Python\\Python39\\site-packages\\PyInstaller\\loader\\pyimod02_archive.pyc',
   'PYMODULE'),
  ('pyimod03_importers',
   'C:\\Users\\lugoncalves\\AppData\\Roaming\\Python\\Python39\\site-packages\\PyInstaller\\loader\\pyimod03_importers.pyc',
   'PYMODULE'),
  ('pyimod04_ctypes',
   'C:\\Users\\lugoncalves\\AppData\\Roaming\\Python\\Python39\\site-packages\\PyInstaller\\loader\\pyimod04_ctypes.pyc',
   'PYMODULE'),
  ('pyiboot01_bootstrap',
   'C:\\Users\\lugoncalves\\AppData\\Roaming\\Python\\Python39\\site-packages\\PyInstaller\\loader\\pyiboot01_bootstrap.py',
   'PYSOURCE'),
  ('pyi_rth_pkgutil',
   'C:\\Users\\lugoncalves\\AppData\\Roaming\\Python\\Python39\\site-packages\\PyInstaller\\hooks\\rthooks\\pyi_rth_pkgutil.py',
   'PYSOURCE'),
  ('pyi_rth_multiprocessing',
   'C:\\Users\\lugoncalves\\AppData\\Roaming\\Python\\Python39\\site-packages\\PyInstaller\\hooks\\rthooks\\pyi_rth_multiprocessing.py',
   'PYSOURCE'),
  ('pyi_rth_inspect',
   'C:\\Users\\lugoncalves\\AppData\\Roaming\\Python\\Python39\\site-packages\\PyInstaller\\hooks\\rthooks\\pyi_rth_inspect.py',
   'PYSOURCE'),
  ('pyi_rth_pkgres',
   'C:\\Users\\lugoncalves\\AppData\\Roaming\\Python\\Python39\\site-packages\\PyInstaller\\hooks\\rthooks\\pyi_rth_pkgres.py',
   'PYSOURCE'),
  ('pyi_rth_certifi',
   'C:\\Users\\lugoncalves\\AppData\\Roaming\\Python\\Python39\\site-packages\\_pyinstaller_hooks_contrib\\hooks\\rthooks\\pyi_rth_certifi.py',
   'PYSOURCE'),
  ('main',
   'C:\\Users\\lugoncalves\\OneDrive - Schréder '
   'SA\\Documents\\E2ETest\\exedrag3automationtool\\main.py',
   'PYSOURCE'),
  ('VCRUNTIME140.dll',
   'c:\\program files\\python39\\VCRUNTIME140.dll',
   'BINARY'),
  ('python39.dll', 'c:\\program files\\python39\\python39.dll', 'BINARY'),
  ('libopenblas.GK7GX5KEQ4F6UYO3P26ULGBQYHGQO7J4.gfortran-win_amd64.dll',
   'C:\\Users\\lugoncalves\\AppData\\Roaming\\Python\\Python39\\site-packages\\numpy\\.libs\\libopenblas.GK7GX5KEQ4F6UYO3P26ULGBQYHGQO7J4.gfortran-win_amd64.dll',
   'BINARY'),
  ('_decimal', 'c:\\program files\\python39\\DLLs\\_decimal.pyd', 'EXTENSION'),
  ('select', 'c:\\program files\\python39\\DLLs\\select.pyd', 'EXTENSION'),
  ('_overlapped',
   'c:\\program files\\python39\\DLLs\\_overlapped.pyd',
   'EXTENSION'),
  ('_asyncio', 'c:\\program files\\python39\\DLLs\\_asyncio.pyd', 'EXTENSION'),
  ('_queue', 'c:\\program files\\python39\\DLLs\\_queue.pyd', 'EXTENSION'),
  ('_ctypes', 'c:\\program files\\python39\\DLLs\\_ctypes.pyd', 'EXTENSION'),
  ('_multiprocessing',
   'c:\\program files\\python39\\DLLs\\_multiprocessing.pyd',
   'EXTENSION'),
  ('pyexpat', 'c:\\program files\\python39\\DLLs\\pyexpat.pyd', 'EXTENSION'),
  ('unicodedata',
   'c:\\program files\\python39\\DLLs\\unicodedata.pyd',
   'EXTENSION'),
  ('_hashlib', 'c:\\program files\\python39\\DLLs\\_hashlib.pyd', 'EXTENSION'),
  ('_lzma', 'c:\\program files\\python39\\DLLs\\_lzma.pyd', 'EXTENSION'),
  ('_bz2', 'c:\\program files\\python39\\DLLs\\_bz2.pyd', 'EXTENSION'),
  ('_socket', 'c:\\program files\\python39\\DLLs\\_socket.pyd', 'EXTENSION'),
  ('_ssl', 'c:\\program files\\python39\\DLLs\\_ssl.pyd', 'EXTENSION'),
  ('_uuid', 'c:\\program files\\python39\\DLLs\\_uuid.pyd', 'EXTENSION'),
  ('greenlet._greenlet',
   'C:\\Users\\lugoncalves\\AppData\\Roaming\\Python\\Python39\\site-packages\\greenlet\\_greenlet.cp39-win_amd64.pyd',
   'EXTENSION'),
  ('zope.interface._zope_interface_coptimizations',
   'C:\\Users\\lugoncalves\\AppData\\Roaming\\Python\\Python39\\site-packages\\zope\\interface\\_zope_interface_coptimizations.cp39-win_amd64.pyd',
   'EXTENSION'),
  ('_cffi_backend',
   'C:\\Users\\lugoncalves\\AppData\\Roaming\\Python\\Python39\\site-packages\\_cffi_backend.cp39-win_amd64.pyd',
   'EXTENSION'),
  ('gevent.libev.corecext',
   'C:\\Users\\lugoncalves\\AppData\\Roaming\\Python\\Python39\\site-packages\\gevent\\libev\\corecext.cp39-win_amd64.pyd',
   'EXTENSION'),
  ('gevent._gevent_c_imap',
   'C:\\Users\\lugoncalves\\AppData\\Roaming\\Python\\Python39\\site-packages\\gevent\\_gevent_c_imap.cp39-win_amd64.pyd',
   'EXTENSION'),
  ('gevent._gevent_c_greenlet_primitives',
   'C:\\Users\\lugoncalves\\AppData\\Roaming\\Python\\Python39\\site-packages\\gevent\\_gevent_c_greenlet_primitives.cp39-win_amd64.pyd',
   'EXTENSION'),
  ('gevent._gevent_c_hub_local',
   'C:\\Users\\lugoncalves\\AppData\\Roaming\\Python\\Python39\\site-packages\\gevent\\_gevent_c_hub_local.cp39-win_amd64.pyd',
   'EXTENSION'),
  ('gevent._gevent_clocal',
   'C:\\Users\\lugoncalves\\AppData\\Roaming\\Python\\Python39\\site-packages\\gevent\\_gevent_clocal.cp39-win_amd64.pyd',
   'EXTENSION'),
  ('gevent._gevent_cgreenlet',
   'C:\\Users\\lugoncalves\\AppData\\Roaming\\Python\\Python39\\site-packages\\gevent\\_gevent_cgreenlet.cp39-win_amd64.pyd',
   'EXTENSION'),
  ('gevent._gevent_c_ident',
   'C:\\Users\\lugoncalves\\AppData\\Roaming\\Python\\Python39\\site-packages\\gevent\\_gevent_c_ident.cp39-win_amd64.pyd',
   'EXTENSION'),
  ('gevent._gevent_c_hub_primitives',
   'C:\\Users\\lugoncalves\\AppData\\Roaming\\Python\\Python39\\site-packages\\gevent\\_gevent_c_hub_primitives.cp39-win_amd64.pyd',
   'EXTENSION'),
  ('gevent._gevent_c_waiter',
   'C:\\Users\\lugoncalves\\AppData\\Roaming\\Python\\Python39\\site-packages\\gevent\\_gevent_c_waiter.cp39-win_amd64.pyd',
   'EXTENSION'),
  ('gevent._gevent_cqueue',
   'C:\\Users\\lugoncalves\\AppData\\Roaming\\Python\\Python39\\site-packages\\gevent\\_gevent_cqueue.cp39-win_amd64.pyd',
   'EXTENSION'),
  ('gevent._gevent_c_semaphore',
   'C:\\Users\\lugoncalves\\AppData\\Roaming\\Python\\Python39\\site-packages\\gevent\\_gevent_c_semaphore.cp39-win_amd64.pyd',
   'EXTENSION'),
  ('gevent._gevent_c_tracer',
   'C:\\Users\\lugoncalves\\AppData\\Roaming\\Python\\Python39\\site-packages\\gevent\\_gevent_c_tracer.cp39-win_amd64.pyd',
   'EXTENSION'),
  ('gevent.libuv._corecffi',
   'C:\\Users\\lugoncalves\\AppData\\Roaming\\Python\\Python39\\site-packages\\gevent\\libuv\\_corecffi.pyd',
   'EXTENSION'),
  ('gevent._gevent_cevent',
   'C:\\Users\\lugoncalves\\AppData\\Roaming\\Python\\Python39\\site-packages\\gevent\\_gevent_cevent.cp39-win_amd64.pyd',
   'EXTENSION'),
  ('gevent._gevent_c_abstract_linkable',
   'C:\\Users\\lugoncalves\\AppData\\Roaming\\Python\\Python39\\site-packages\\gevent\\_gevent_c_abstract_linkable.cp39-win_amd64.pyd',
   'EXTENSION'),
  ('numpy.core._multiarray_umath',
   'C:\\Users\\lugoncalves\\AppData\\Roaming\\Python\\Python39\\site-packages\\numpy\\core\\_multiarray_umath.cp39-win_amd64.pyd',
   'EXTENSION'),
  ('numpy.core._multiarray_tests',
   'C:\\Users\\lugoncalves\\AppData\\Roaming\\Python\\Python39\\site-packages\\numpy\\core\\_multiarray_tests.cp39-win_amd64.pyd',
   'EXTENSION'),
  ('numpy.linalg.lapack_lite',
   'C:\\Users\\lugoncalves\\AppData\\Roaming\\Python\\Python39\\site-packages\\numpy\\linalg\\lapack_lite.cp39-win_amd64.pyd',
   'EXTENSION'),
  ('numpy.random.mtrand',
   'C:\\Users\\lugoncalves\\AppData\\Roaming\\Python\\Python39\\site-packages\\numpy\\random\\mtrand.cp39-win_amd64.pyd',
   'EXTENSION'),
  ('numpy.random._sfc64',
   'C:\\Users\\lugoncalves\\AppData\\Roaming\\Python\\Python39\\site-packages\\numpy\\random\\_sfc64.cp39-win_amd64.pyd',
   'EXTENSION'),
  ('numpy.random._philox',
   'C:\\Users\\lugoncalves\\AppData\\Roaming\\Python\\Python39\\site-packages\\numpy\\random\\_philox.cp39-win_amd64.pyd',
   'EXTENSION'),
  ('numpy.random._pcg64',
   'C:\\Users\\lugoncalves\\AppData\\Roaming\\Python\\Python39\\site-packages\\numpy\\random\\_pcg64.cp39-win_amd64.pyd',
   'EXTENSION'),
  ('numpy.random._mt19937',
   'C:\\Users\\lugoncalves\\AppData\\Roaming\\Python\\Python39\\site-packages\\numpy\\random\\_mt19937.cp39-win_amd64.pyd',
   'EXTENSION'),
  ('numpy.random.bit_generator',
   'C:\\Users\\lugoncalves\\AppData\\Roaming\\Python\\Python39\\site-packages\\numpy\\random\\bit_generator.cp39-win_amd64.pyd',
   'EXTENSION'),
  ('numpy.random._generator',
   'C:\\Users\\lugoncalves\\AppData\\Roaming\\Python\\Python39\\site-packages\\numpy\\random\\_generator.cp39-win_amd64.pyd',
   'EXTENSION'),
  ('numpy.random._bounded_integers',
   'C:\\Users\\lugoncalves\\AppData\\Roaming\\Python\\Python39\\site-packages\\numpy\\random\\_bounded_integers.cp39-win_amd64.pyd',
   'EXTENSION'),
  ('numpy.random._common',
   'C:\\Users\\lugoncalves\\AppData\\Roaming\\Python\\Python39\\site-packages\\numpy\\random\\_common.cp39-win_amd64.pyd',
   'EXTENSION'),
  ('numpy.fft._pocketfft_internal',
   'C:\\Users\\lugoncalves\\AppData\\Roaming\\Python\\Python39\\site-packages\\numpy\\fft\\_pocketfft_internal.cp39-win_amd64.pyd',
   'EXTENSION'),
  ('numpy.linalg._umath_linalg',
   'C:\\Users\\lugoncalves\\AppData\\Roaming\\Python\\Python39\\site-packages\\numpy\\linalg\\_umath_linalg.cp39-win_amd64.pyd',
   'EXTENSION'),
  ('cryptography.hazmat.bindings._openssl',
   'C:\\Users\\lugoncalves\\AppData\\Roaming\\Python\\Python39\\site-packages\\cryptography\\hazmat\\bindings\\_openssl.pyd',
   'EXTENSION'),
  ('bcrypt._bcrypt',
   'C:\\Users\\lugoncalves\\AppData\\Roaming\\Python\\Python39\\site-packages\\bcrypt\\_bcrypt.pyd',
   'EXTENSION'),
  ('libffi-7.dll', 'c:\\program files\\python39\\DLLs\\libffi-7.dll', 'BINARY'),
  ('libcrypto-1_1.dll',
   'c:\\program files\\python39\\DLLs\\libcrypto-1_1.dll',
   'BINARY'),
  ('libssl-1_1.dll',
   'c:\\program files\\python39\\DLLs\\libssl-1_1.dll',
   'BINARY'),
  ('python3.dll', 'c:\\program files\\python39\\python3.dll', 'BINARY'),
  ('base_library.zip',
   'C:\\Users\\lugoncalves\\OneDrive - Schréder '
   'SA\\Documents\\E2ETest\\exedrag3automationtool\\build\\ExedraG3AutomationTool_1.1\\base_library.zip',
   'DATA'),
  ('cryptography-3.4.8.dist-info\\top_level.txt',
   'c:\\users\\lugoncalves\\appdata\\roaming\\python\\python39\\site-packages\\cryptography-3.4.8.dist-info\\top_level.txt',
   'DATA'),
  ('greenlet-1.1.1.dist-info\\AUTHORS',
   'c:\\users\\lugoncalves\\appdata\\roaming\\python\\python39\\site-packages\\greenlet-1.1.1.dist-info\\AUTHORS',
   'DATA'),
  ('pycparser-2.20.dist-info\\top_level.txt',
   'c:\\users\\lugoncalves\\appdata\\roaming\\python\\python39\\site-packages\\pycparser-2.20.dist-info\\top_level.txt',
   'DATA'),
  ('gevent-21.8.0.dist-info\\AUTHORS',
   'c:\\users\\lugoncalves\\appdata\\roaming\\python\\python39\\site-packages\\gevent-21.8.0.dist-info\\AUTHORS',
   'DATA'),
  ('zope.interface-5.4.0.dist-info\\WHEEL',
   'c:\\users\\lugoncalves\\appdata\\roaming\\python\\python39\\site-packages\\zope.interface-5.4.0.dist-info\\WHEEL',
   'DATA'),
  ('greenlet-1.1.1.dist-info\\INSTALLER',
   'c:\\users\\lugoncalves\\appdata\\roaming\\python\\python39\\site-packages\\greenlet-1.1.1.dist-info\\INSTALLER',
   'DATA'),
  ('cffi-1.14.6.dist-info\\top_level.txt',
   'c:\\users\\lugoncalves\\appdata\\roaming\\python\\python39\\site-packages\\cffi-1.14.6.dist-info\\top_level.txt',
   'DATA'),
  ('cryptography-3.4.8.dist-info\\RECORD',
   'c:\\users\\lugoncalves\\appdata\\roaming\\python\\python39\\site-packages\\cryptography-3.4.8.dist-info\\RECORD',
   'DATA'),
  ('greenlet-1.1.1.dist-info\\top_level.txt',
   'c:\\users\\lugoncalves\\appdata\\roaming\\python\\python39\\site-packages\\greenlet-1.1.1.dist-info\\top_level.txt',
   'DATA'),
  ('zope.event-4.5.0.dist-info\\LICENSE.txt',
   'c:\\users\\lugoncalves\\appdata\\roaming\\python\\python39\\site-packages\\zope.event-4.5.0.dist-info\\LICENSE.txt',
   'DATA'),
  ('setuptools-56.0.0.dist-info\\WHEEL',
   'c:\\program '
   'files\\python39\\lib\\site-packages\\setuptools-56.0.0.dist-info\\WHEEL',
   'DATA'),
  ('cryptography-3.4.8.dist-info\\LICENSE.BSD',
   'c:\\users\\lugoncalves\\appdata\\roaming\\python\\python39\\site-packages\\cryptography-3.4.8.dist-info\\LICENSE.BSD',
   'DATA'),
  ('cffi-1.14.6.dist-info\\INSTALLER',
   'c:\\users\\lugoncalves\\appdata\\roaming\\python\\python39\\site-packages\\cffi-1.14.6.dist-info\\INSTALLER',
   'DATA'),
  ('cryptography-3.4.8.dist-info\\LICENSE',
   'c:\\users\\lugoncalves\\appdata\\roaming\\python\\python39\\site-packages\\cryptography-3.4.8.dist-info\\LICENSE',
   'DATA'),
  ('pycparser-2.20.dist-info\\INSTALLER',
   'c:\\users\\lugoncalves\\appdata\\roaming\\python\\python39\\site-packages\\pycparser-2.20.dist-info\\INSTALLER',
   'DATA'),
  ('setuptools-56.0.0.dist-info\\dependency_links.txt',
   'c:\\program '
   'files\\python39\\lib\\site-packages\\setuptools-56.0.0.dist-info\\dependency_links.txt',
   'DATA'),
  ('setuptools-56.0.0.dist-info\\entry_points.txt',
   'c:\\program '
   'files\\python39\\lib\\site-packages\\setuptools-56.0.0.dist-info\\entry_points.txt',
   'DATA'),
  ('zope.event-4.5.0.dist-info\\RECORD',
   'c:\\users\\lugoncalves\\appdata\\roaming\\python\\python39\\site-packages\\zope.event-4.5.0.dist-info\\RECORD',
   'DATA'),
  ('gevent-21.8.0.dist-info\\METADATA',
   'c:\\users\\lugoncalves\\appdata\\roaming\\python\\python39\\site-packages\\gevent-21.8.0.dist-info\\METADATA',
   'DATA'),
  ('pycparser-2.20.dist-info\\WHEEL',
   'c:\\users\\lugoncalves\\appdata\\roaming\\python\\python39\\site-packages\\pycparser-2.20.dist-info\\WHEEL',
   'DATA'),
  ('zope.interface-5.4.0.dist-info\\INSTALLER',
   'c:\\users\\lugoncalves\\appdata\\roaming\\python\\python39\\site-packages\\zope.interface-5.4.0.dist-info\\INSTALLER',
   'DATA'),
  ('gevent-21.8.0.dist-info\\NOTICE',
   'c:\\users\\lugoncalves\\appdata\\roaming\\python\\python39\\site-packages\\gevent-21.8.0.dist-info\\NOTICE',
   'DATA'),
  ('zope.interface-5.4.0.dist-info\\LICENSE.txt',
   'c:\\users\\lugoncalves\\appdata\\roaming\\python\\python39\\site-packages\\zope.interface-5.4.0.dist-info\\LICENSE.txt',
   'DATA'),
  ('gevent-21.8.0.dist-info\\LICENSE',
   'c:\\users\\lugoncalves\\appdata\\roaming\\python\\python39\\site-packages\\gevent-21.8.0.dist-info\\LICENSE',
   'DATA'),
  ('setuptools-56.0.0.dist-info\\RECORD',
   'c:\\program '
   'files\\python39\\lib\\site-packages\\setuptools-56.0.0.dist-info\\RECORD',
   'DATA'),
  ('gevent-21.8.0.dist-info\\INSTALLER',
   'c:\\users\\lugoncalves\\appdata\\roaming\\python\\python39\\site-packages\\gevent-21.8.0.dist-info\\INSTALLER',
   'DATA'),
  ('zope.interface-5.4.0.dist-info\\METADATA',
   'c:\\users\\lugoncalves\\appdata\\roaming\\python\\python39\\site-packages\\zope.interface-5.4.0.dist-info\\METADATA',
   'DATA'),
  ('cryptography-3.4.8.dist-info\\INSTALLER',
   'c:\\users\\lugoncalves\\appdata\\roaming\\python\\python39\\site-packages\\cryptography-3.4.8.dist-info\\INSTALLER',
   'DATA'),
  ('greenlet-1.1.1.dist-info\\WHEEL',
   'c:\\users\\lugoncalves\\appdata\\roaming\\python\\python39\\site-packages\\greenlet-1.1.1.dist-info\\WHEEL',
   'DATA'),
  ('setuptools-56.0.0.dist-info\\REQUESTED',
   'c:\\program '
   'files\\python39\\lib\\site-packages\\setuptools-56.0.0.dist-info\\REQUESTED',
   'DATA'),
  ('greenlet-1.1.1.dist-info\\LICENSE.PSF',
   'c:\\users\\lugoncalves\\appdata\\roaming\\python\\python39\\site-packages\\greenlet-1.1.1.dist-info\\LICENSE.PSF',
   'DATA'),
  ('setuptools-56.0.0.dist-info\\top_level.txt',
   'c:\\program '
   'files\\python39\\lib\\site-packages\\setuptools-56.0.0.dist-info\\top_level.txt',
   'DATA'),
  ('zope.event-4.5.0.dist-info\\namespace_packages.txt',
   'c:\\users\\lugoncalves\\appdata\\roaming\\python\\python39\\site-packages\\zope.event-4.5.0.dist-info\\namespace_packages.txt',
   'DATA'),
  ('cryptography-3.4.8.dist-info\\LICENSE.APACHE',
   'c:\\users\\lugoncalves\\appdata\\roaming\\python\\python39\\site-packages\\cryptography-3.4.8.dist-info\\LICENSE.APACHE',
   'DATA'),
  ('cryptography-3.4.8.dist-info\\METADATA',
   'c:\\users\\lugoncalves\\appdata\\roaming\\python\\python39\\site-packages\\cryptography-3.4.8.dist-info\\METADATA',
   'DATA'),
  ('greenlet-1.1.1.dist-info\\LICENSE',
   'c:\\users\\lugoncalves\\appdata\\roaming\\python\\python39\\site-packages\\greenlet-1.1.1.dist-info\\LICENSE',
   'DATA'),
  ('zope.event-4.5.0.dist-info\\top_level.txt',
   'c:\\users\\lugoncalves\\appdata\\roaming\\python\\python39\\site-packages\\zope.event-4.5.0.dist-info\\top_level.txt',
   'DATA'),
  ('setuptools-56.0.0.dist-info\\LICENSE',
   'c:\\program '
   'files\\python39\\lib\\site-packages\\setuptools-56.0.0.dist-info\\LICENSE',
   'DATA'),
  ('zope.event-4.5.0.dist-info\\WHEEL',
   'c:\\users\\lugoncalves\\appdata\\roaming\\python\\python39\\site-packages\\zope.event-4.5.0.dist-info\\WHEEL',
   'DATA'),
  ('pycparser-2.20.dist-info\\RECORD',
   'c:\\users\\lugoncalves\\appdata\\roaming\\python\\python39\\site-packages\\pycparser-2.20.dist-info\\RECORD',
   'DATA'),
  ('zope.event-4.5.0.dist-info\\METADATA',
   'c:\\users\\lugoncalves\\appdata\\roaming\\python\\python39\\site-packages\\zope.event-4.5.0.dist-info\\METADATA',
   'DATA'),
  ('gevent-21.8.0.dist-info\\top_level.txt',
   'c:\\users\\lugoncalves\\appdata\\roaming\\python\\python39\\site-packages\\gevent-21.8.0.dist-info\\top_level.txt',
   'DATA'),
  ('pycparser-2.20.dist-info\\LICENSE',
   'c:\\users\\lugoncalves\\appdata\\roaming\\python\\python39\\site-packages\\pycparser-2.20.dist-info\\LICENSE',
   'DATA'),
  ('cryptography-3.4.8.dist-info\\WHEEL',
   'c:\\users\\lugoncalves\\appdata\\roaming\\python\\python39\\site-packages\\cryptography-3.4.8.dist-info\\WHEEL',
   'DATA'),
  ('gevent-21.8.0.dist-info\\RECORD',
   'c:\\users\\lugoncalves\\appdata\\roaming\\python\\python39\\site-packages\\gevent-21.8.0.dist-info\\RECORD',
   'DATA'),
  ('zope.interface-5.4.0.dist-info\\RECORD',
   'c:\\users\\lugoncalves\\appdata\\roaming\\python\\python39\\site-packages\\zope.interface-5.4.0.dist-info\\RECORD',
   'DATA'),
  ('greenlet-1.1.1.dist-info\\METADATA',
   'c:\\users\\lugoncalves\\appdata\\roaming\\python\\python39\\site-packages\\greenlet-1.1.1.dist-info\\METADATA',
   'DATA'),
  ('zope.interface-5.4.0.dist-info\\top_level.txt',
   'c:\\users\\lugoncalves\\appdata\\roaming\\python\\python39\\site-packages\\zope.interface-5.4.0.dist-info\\top_level.txt',
   'DATA'),
  ('cffi-1.14.6.dist-info\\entry_points.txt',
   'c:\\users\\lugoncalves\\appdata\\roaming\\python\\python39\\site-packages\\cffi-1.14.6.dist-info\\entry_points.txt',
   'DATA'),
  ('gevent-21.8.0.dist-info\\WHEEL',
   'c:\\users\\lugoncalves\\appdata\\roaming\\python\\python39\\site-packages\\gevent-21.8.0.dist-info\\WHEEL',
   'DATA'),
  ('setuptools-56.0.0.dist-info\\INSTALLER',
   'c:\\program '
   'files\\python39\\lib\\site-packages\\setuptools-56.0.0.dist-info\\INSTALLER',
   'DATA'),
  ('cffi-1.14.6.dist-info\\METADATA',
   'c:\\users\\lugoncalves\\appdata\\roaming\\python\\python39\\site-packages\\cffi-1.14.6.dist-info\\METADATA',
   'DATA'),
  ('eel\\eel.js',
   'C:\\Users\\lugoncalves\\AppData\\Roaming\\Python\\Python39\\site-packages\\eel\\eel.js',
   'DATA'),
  ('cffi-1.14.6.dist-info\\WHEEL',
   'c:\\users\\lugoncalves\\appdata\\roaming\\python\\python39\\site-packages\\cffi-1.14.6.dist-info\\WHEEL',
   'DATA'),
  ('zope.interface-5.4.0.dist-info\\namespace_packages.txt',
   'c:\\users\\lugoncalves\\appdata\\roaming\\python\\python39\\site-packages\\zope.interface-5.4.0.dist-info\\namespace_packages.txt',
   'DATA'),
  ('pycparser-2.20.dist-info\\METADATA',
   'c:\\users\\lugoncalves\\appdata\\roaming\\python\\python39\\site-packages\\pycparser-2.20.dist-info\\METADATA',
   'DATA'),
  ('cffi-1.14.6.dist-info\\LICENSE',
   'c:\\users\\lugoncalves\\appdata\\roaming\\python\\python39\\site-packages\\cffi-1.14.6.dist-info\\LICENSE',
   'DATA'),
  ('zope.event-4.5.0.dist-info\\INSTALLER',
   'c:\\users\\lugoncalves\\appdata\\roaming\\python\\python39\\site-packages\\zope.event-4.5.0.dist-info\\INSTALLER',
   'DATA'),
  ('greenlet-1.1.1.dist-info\\RECORD',
   'c:\\users\\lugoncalves\\appdata\\roaming\\python\\python39\\site-packages\\greenlet-1.1.1.dist-info\\RECORD',
   'DATA'),
  ('cryptography-3.4.8.dist-info\\LICENSE.PSF',
   'c:\\users\\lugoncalves\\appdata\\roaming\\python\\python39\\site-packages\\cryptography-3.4.8.dist-info\\LICENSE.PSF',
   'DATA'),
  ('setuptools-56.0.0.dist-info\\METADATA',
   'c:\\program '
   'files\\python39\\lib\\site-packages\\setuptools-56.0.0.dist-info\\METADATA',
   'DATA'),
  ('cffi-1.14.6.dist-info\\RECORD',
   'c:\\users\\lugoncalves\\appdata\\roaming\\python\\python39\\site-packages\\cffi-1.14.6.dist-info\\RECORD',
   'DATA'),
  ('certifi\\cacert.pem',
   'C:\\Users\\lugoncalves\\AppData\\Roaming\\Python\\Python39\\site-packages\\certifi\\cacert.pem',
   'DATA'),
  ('gevent-21.8.0.dist-info\\entry_points.txt',
   'c:\\users\\lugoncalves\\appdata\\roaming\\python\\python39\\site-packages\\gevent-21.8.0.dist-info\\entry_points.txt',
   'DATA'),
  ('pyinstaller-4.5.1.dist-info\\COPYING.txt',
   'c:\\users\\lugoncalves\\appdata\\roaming\\python\\python39\\site-packages\\pyinstaller-4.5.1.dist-info\\COPYING.txt',
   'DATA'),
  ('pyinstaller-4.5.1.dist-info\\WHEEL',
   'c:\\users\\lugoncalves\\appdata\\roaming\\python\\python39\\site-packages\\pyinstaller-4.5.1.dist-info\\WHEEL',
   'DATA'),
  ('altgraph-0.17.dist-info\\INSTALLER',
   'c:\\users\\lugoncalves\\appdata\\roaming\\python\\python39\\site-packages\\altgraph-0.17.dist-info\\INSTALLER',
   'DATA'),
  ('altgraph-0.17.dist-info\\top_level.txt',
   'c:\\users\\lugoncalves\\appdata\\roaming\\python\\python39\\site-packages\\altgraph-0.17.dist-info\\top_level.txt',
   'DATA'),
  ('pyinstaller-4.5.1.dist-info\\RECORD',
   'c:\\users\\lugoncalves\\appdata\\roaming\\python\\python39\\site-packages\\pyinstaller-4.5.1.dist-info\\RECORD',
   'DATA'),
  ('altgraph-0.17.dist-info\\METADATA',
   'c:\\users\\lugoncalves\\appdata\\roaming\\python\\python39\\site-packages\\altgraph-0.17.dist-info\\METADATA',
   'DATA'),
  ('altgraph-0.17.dist-info\\WHEEL',
   'c:\\users\\lugoncalves\\appdata\\roaming\\python\\python39\\site-packages\\altgraph-0.17.dist-info\\WHEEL',
   'DATA'),
  ('pyinstaller-4.5.1.dist-info\\top_level.txt',
   'c:\\users\\lugoncalves\\appdata\\roaming\\python\\python39\\site-packages\\pyinstaller-4.5.1.dist-info\\top_level.txt',
   'DATA'),
  ('altgraph-0.17.dist-info\\LICENSE',
   'c:\\users\\lugoncalves\\appdata\\roaming\\python\\python39\\site-packages\\altgraph-0.17.dist-info\\LICENSE',
   'DATA'),
  ('altgraph-0.17.dist-info\\zip-safe',
   'c:\\users\\lugoncalves\\appdata\\roaming\\python\\python39\\site-packages\\altgraph-0.17.dist-info\\zip-safe',
   'DATA'),
  ('pyinstaller-4.5.1.dist-info\\entry_points.txt',
   'c:\\users\\lugoncalves\\appdata\\roaming\\python\\python39\\site-packages\\pyinstaller-4.5.1.dist-info\\entry_points.txt',
   'DATA'),
  ('pyinstaller-4.5.1.dist-info\\REQUESTED',
   'c:\\users\\lugoncalves\\appdata\\roaming\\python\\python39\\site-packages\\pyinstaller-4.5.1.dist-info\\REQUESTED',
   'DATA'),
  ('pyinstaller-4.5.1.dist-info\\METADATA',
   'c:\\users\\lugoncalves\\appdata\\roaming\\python\\python39\\site-packages\\pyinstaller-4.5.1.dist-info\\METADATA',
   'DATA'),
  ('pyinstaller-4.5.1.dist-info\\INSTALLER',
   'c:\\users\\lugoncalves\\appdata\\roaming\\python\\python39\\site-packages\\pyinstaller-4.5.1.dist-info\\INSTALLER',
   'DATA'),
  ('altgraph-0.17.dist-info\\RECORD',
   'c:\\users\\lugoncalves\\appdata\\roaming\\python\\python39\\site-packages\\altgraph-0.17.dist-info\\RECORD',
   'DATA'),
  ('gui\\device2cloud.html',
   'C:\\Users\\lugoncalves\\OneDrive - Schréder '
   'SA\\Documents\\E2ETest\\exedrag3automationtool\\gui\\device2cloud.html',
   'DATA'),
  ('gui\\cloud2device.html',
   'C:\\Users\\lugoncalves\\OneDrive - Schréder '
   'SA\\Documents\\E2ETest\\exedrag3automationtool\\gui\\cloud2device.html',
   'DATA'),
  ('gui\\images\\btn_ui_normal.png',
   'C:\\Users\\lugoncalves\\OneDrive - Schréder '
   'SA\\Documents\\E2ETest\\exedrag3automationtool\\gui\\images\\btn_ui_normal.png',
   'DATA'),
  ('gui\\images\\btn_device_normal.png',
   'C:\\Users\\lugoncalves\\OneDrive - Schréder '
   'SA\\Documents\\E2ETest\\exedrag3automationtool\\gui\\images\\btn_device_normal.png',
   'DATA'),
  ('gui\\images\\LOGO SCHREDER HYPERION.png',
   'C:\\Users\\lugoncalves\\OneDrive - Schréder '
   'SA\\Documents\\E2ETest\\exedrag3automationtool\\gui\\images\\LOGO SCHREDER '
   'HYPERION.png',
   'DATA'),
  ('gui\\images\\btn_settings_normal.svg',
   'C:\\Users\\lugoncalves\\OneDrive - Schréder '
   'SA\\Documents\\E2ETest\\exedrag3automationtool\\gui\\images\\btn_settings_normal.svg',
   'DATA'),
  ('gui\\images\\btn_exit.png',
   'C:\\Users\\lugoncalves\\OneDrive - Schréder '
   'SA\\Documents\\E2ETest\\exedrag3automationtool\\gui\\images\\btn_exit.png',
   'DATA'),
  ('gui\\images\\btn_home_highlighted.svg',
   'C:\\Users\\lugoncalves\\OneDrive - Schréder '
   'SA\\Documents\\E2ETest\\exedrag3automationtool\\gui\\images\\btn_home_highlighted.svg',
   'DATA'),
  ('gui\\images\\btn_home_highlighted.png',
   'C:\\Users\\lugoncalves\\OneDrive - Schréder '
   'SA\\Documents\\E2ETest\\exedrag3automationtool\\gui\\images\\btn_home_highlighted.png',
   'DATA'),
  ('gui\\images\\btn_home_normal.png',
   'C:\\Users\\lugoncalves\\OneDrive - Schréder '
   'SA\\Documents\\E2ETest\\exedrag3automationtool\\gui\\images\\btn_home_normal.png',
   'DATA'),
  ('gui\\js\\settings.js',
   'C:\\Users\\lugoncalves\\OneDrive - Schréder '
   'SA\\Documents\\E2ETest\\exedrag3automationtool\\gui\\js\\settings.js',
   'DATA'),
  ('gui\\images\\btn_settings_highlighted.svg',
   'C:\\Users\\lugoncalves\\OneDrive - Schréder '
   'SA\\Documents\\E2ETest\\exedrag3automationtool\\gui\\images\\btn_settings_highlighted.svg',
   'DATA'),
  ('gui\\js\\coap.js',
   'C:\\Users\\lugoncalves\\OneDrive - Schréder '
   'SA\\Documents\\E2ETest\\exedrag3automationtool\\gui\\js\\coap.js',
   'DATA'),
  ('gui\\images\\btn_automation_normal.svg',
   'C:\\Users\\lugoncalves\\OneDrive - Schréder '
   'SA\\Documents\\E2ETest\\exedrag3automationtool\\gui\\images\\btn_automation_normal.svg',
   'DATA'),
  ('gui\\images\\btn_automation_highlighted_2.svg',
   'C:\\Users\\lugoncalves\\OneDrive - Schréder '
   'SA\\Documents\\E2ETest\\exedrag3automationtool\\gui\\images\\btn_automation_highlighted_2.svg',
   'DATA'),
  ('gui\\images\\btn_device_highlighted.png',
   'C:\\Users\\lugoncalves\\OneDrive - Schréder '
   'SA\\Documents\\E2ETest\\exedrag3automationtool\\gui\\images\\btn_device_highlighted.png',
   'DATA'),
  ('gui\\images\\btn_device_highlighted_2.svg',
   'C:\\Users\\lugoncalves\\OneDrive - Schréder '
   'SA\\Documents\\E2ETest\\exedrag3automationtool\\gui\\images\\btn_device_highlighted_2.svg',
   'DATA'),
  ('gui\\images\\btn_device_normal.svg',
   'C:\\Users\\lugoncalves\\OneDrive - Schréder '
   'SA\\Documents\\E2ETest\\exedrag3automationtool\\gui\\images\\btn_device_normal.svg',
   'DATA'),
  ('gui\\images\\btn_settings_normal.png',
   'C:\\Users\\lugoncalves\\OneDrive - Schréder '
   'SA\\Documents\\E2ETest\\exedrag3automationtool\\gui\\images\\btn_settings_normal.png',
   'DATA'),
  ('gui\\settings.html',
   'C:\\Users\\lugoncalves\\OneDrive - Schréder '
   'SA\\Documents\\E2ETest\\exedrag3automationtool\\gui\\settings.html',
   'DATA'),
  ('gui\\images\\exedra_logo.svg',
   'C:\\Users\\lugoncalves\\OneDrive - Schréder '
   'SA\\Documents\\E2ETest\\exedrag3automationtool\\gui\\images\\exedra_logo.svg',
   'DATA'),
  ('gui\\images\\icon.png',
   'C:\\Users\\lugoncalves\\OneDrive - Schréder '
   'SA\\Documents\\E2ETest\\exedrag3automationtool\\gui\\images\\icon.png',
   'DATA'),
  ('gui\\images\\btn_home_normal.svg',
   'C:\\Users\\lugoncalves\\OneDrive - Schréder '
   'SA\\Documents\\E2ETest\\exedrag3automationtool\\gui\\images\\btn_home_normal.svg',
   'DATA'),
  ('gui\\images\\vertical_menu_gradient.png',
   'C:\\Users\\lugoncalves\\OneDrive - Schréder '
   'SA\\Documents\\E2ETest\\exedrag3automationtool\\gui\\images\\vertical_menu_gradient.png',
   'DATA'),
  ('gui\\images\\Owlet_IoT_Logo.svg',
   'C:\\Users\\lugoncalves\\OneDrive - Schréder '
   'SA\\Documents\\E2ETest\\exedrag3automationtool\\gui\\images\\Owlet_IoT_Logo.svg',
   'DATA'),
  ('gui\\images\\btn_ui_highlighted.svg',
   'C:\\Users\\lugoncalves\\OneDrive - Schréder '
   'SA\\Documents\\E2ETest\\exedrag3automationtool\\gui\\images\\btn_ui_highlighted.svg',
   'DATA'),
  ('gui\\images\\btn_cloud_normal.png',
   'C:\\Users\\lugoncalves\\OneDrive - Schréder '
   'SA\\Documents\\E2ETest\\exedrag3automationtool\\gui\\images\\btn_cloud_normal.png',
   'DATA'),
  ('gui\\images\\btn_device_highlighted.svg',
   'C:\\Users\\lugoncalves\\OneDrive - Schréder '
   'SA\\Documents\\E2ETest\\exedrag3automationtool\\gui\\images\\btn_device_highlighted.svg',
   'DATA'),
  ('gui\\images\\btn_settings_highlighted.png',
   'C:\\Users\\lugoncalves\\OneDrive - Schréder '
   'SA\\Documents\\E2ETest\\exedrag3automationtool\\gui\\images\\btn_settings_highlighted.png',
   'DATA'),
  ('gui\\images\\btn_ui_normal.svg',
   'C:\\Users\\lugoncalves\\OneDrive - Schréder '
   'SA\\Documents\\E2ETest\\exedrag3automationtool\\gui\\images\\btn_ui_normal.svg',
   'DATA'),
  ('gui\\styles.css',
   'C:\\Users\\lugoncalves\\OneDrive - Schréder '
   'SA\\Documents\\E2ETest\\exedrag3automationtool\\gui\\styles.css',
   'DATA'),
  ('gui\\js\\javascripts.js',
   'C:\\Users\\lugoncalves\\OneDrive - Schréder '
   'SA\\Documents\\E2ETest\\exedrag3automationtool\\gui\\js\\javascripts.js',
   'DATA'),
  ('gui\\images\\Picture1.svg',
   'C:\\Users\\lugoncalves\\OneDrive - Schréder '
   'SA\\Documents\\E2ETest\\exedrag3automationtool\\gui\\images\\Picture1.svg',
   'DATA'),
  ('gui\\images\\btn_exit.svg',
   'C:\\Users\\lugoncalves\\OneDrive - Schréder '
   'SA\\Documents\\E2ETest\\exedrag3automationtool\\gui\\images\\btn_exit.svg',
   'DATA'),
  ('gui\\images\\btn_cloud_normal.svg',
   'C:\\Users\\lugoncalves\\OneDrive - Schréder '
   'SA\\Documents\\E2ETest\\exedrag3automationtool\\gui\\images\\btn_cloud_normal.svg',
   'DATA'),
  ('gui\\images\\btn_cloud_highlighted.png',
   'C:\\Users\\lugoncalves\\OneDrive - Schréder '
   'SA\\Documents\\E2ETest\\exedrag3automationtool\\gui\\images\\btn_cloud_highlighted.png',
   'DATA'),
  ('gui\\images\\btn_ui_highlighted.png',
   'C:\\Users\\lugoncalves\\OneDrive - Schréder '
   'SA\\Documents\\E2ETest\\exedrag3automationtool\\gui\\images\\btn_ui_highlighted.png',
   'DATA'),
  ('gui\\images\\btn_cloud_highlighted.svg',
   'C:\\Users\\lugoncalves\\OneDrive - Schréder '
   'SA\\Documents\\E2ETest\\exedrag3automationtool\\gui\\images\\btn_cloud_highlighted.svg',
   'DATA'),
  ('gui\\images\\btn_cloud_highlighted_2.svg',
   'C:\\Users\\lugoncalves\\OneDrive - Schréder '
   'SA\\Documents\\E2ETest\\exedrag3automationtool\\gui\\images\\btn_cloud_highlighted_2.svg',
   'DATA'),
  ('gui\\images\\btn_settings_highlighted_2.svg',
   'C:\\Users\\lugoncalves\\OneDrive - Schréder '
   'SA\\Documents\\E2ETest\\exedrag3automationtool\\gui\\images\\btn_settings_highlighted_2.svg',
   'DATA'),
  ('gui\\images\\hyperion_footer.png',
   'C:\\Users\\lugoncalves\\OneDrive - Schréder '
   'SA\\Documents\\E2ETest\\exedrag3automationtool\\gui\\images\\hyperion_footer.png',
   'DATA'),
  ('gui\\index.html',
   'C:\\Users\\lugoncalves\\OneDrive - Schréder '
   'SA\\Documents\\E2ETest\\exedrag3automationtool\\gui\\index.html',
   'DATA'),
  ('gui\\images\\btn_ui_highlighted_2.svg',
   'C:\\Users\\lugoncalves\\OneDrive - Schréder '
   'SA\\Documents\\E2ETest\\exedrag3automationtool\\gui\\images\\btn_ui_highlighted_2.svg',
   'DATA'),
  ('gui\\images\\btn_automation_highlighted.svg',
   'C:\\Users\\lugoncalves\\OneDrive - Schréder '
   'SA\\Documents\\E2ETest\\exedrag3automationtool\\gui\\images\\btn_automation_highlighted.svg',
   'DATA'),
  ('ExedraG3AutomationTool_1.1.exe.manifest',
   'C:\\Users\\lugoncalves\\OneDrive - Schréder '
   'SA\\Documents\\E2ETest\\exedrag3automationtool\\build\\ExedraG3AutomationTool_1.1\\ExedraG3AutomationTool_1.1.exe.manifest',
   'BINARY'),
  ('pyi-windows-manifest-filename ExedraG3AutomationTool_1.1.exe.manifest',
   '',
   'OPTION')],
 False,
 False,
 False,
 [],
 None,
 None,
 None)
